{
  "project_info": {
    "project_number": "822588801687",
    "firebase_url": "https://lapakkite-e8d82-default-rtdb.firebaseio.com",
    "project_id": "lapakkite-e8d82",
    "storage_bucket": "lapakkite-e8d82.appspot.com"
  },
  "client": [
    {
      "client_info": {
        "mobilesdk_app_id": "1:822588801687:android:8471b44e4d359022a71fd2",
        "android_client_info": {
          "package_name": "com.lapak.driverlapakkite"
        }
      },
      "oauth_client": [
        {
          "client_id": "822588801687-73m8dtf1t137ibnej7d32u9k79njusk3.apps.googleusercontent.com",
          "client_type": 1,
          "android_info": {
            "package_name": "com.lapak.driverlapakkite",
            "certificate_hash": "d2f8aae607bcf69d7a7ee192b8194c273c4b1a39"
          }
        },
        {
          "client_id": "822588801687-rvbag6tenn09iina2ou95n5gcf6qtmcd.apps.googleusercontent.com",
          "client_type": 1,
          "android_info": {
            "package_name": "com.lapak.driverlapakkite",
            "certificate_hash": "d8ea2f2ca8ef68da0b75b398c05c36873f2f4af8"
          }
        },
        {
          "client_id": "822588801687-l8l7h1lbqabul9r98i5gi0s6ca08g55v.apps.googleusercontent.com",
          "client_type": 3
        }
      ],
      "api_key": [
        {
          "current_key": "AIzaSyCecBCZgOhP4tEjWRxQDKFigO8LdMN9DWg"
        }
      ],
      "services": {
        "appinvite_service": {
          "other_platform_oauth_client": [
            {
              "client_id": "822588801687-l8l7h1lbqabul9r98i5gi0s6ca08g55v.apps.googleusercontent.com",
              "client_type": 3
            }
          ]
        }
      }
    },
    {
      "client_info": {
        "mobilesdk_app_id": "1:822588801687:android:ad8a85aa356470d5a71fd2",
        "android_client_info": {
          "package_name": "com.lapak.lapakkite"
        }
      },
      "oauth_client": [
        {
          "client_id": "822588801687-0dok90dqelj1q9qnp9luvb0pg54i9ndq.apps.googleusercontent.com",
          "client_type": 1,
          "android_info": {
            "package_name": "com.lapak.lapakkite",
            "certificate_hash": "d8ea2f2ca8ef68da0b75b398c05c36873f2f4af8"
          }
        },
        {
          "client_id": "822588801687-qlba6ehrg0pkrgtvq0mvcs79ceu2dhj5.apps.googleusercontent.com",
          "client_type": 1,
          "android_info": {
            "package_name": "com.lapak.lapakkite",
            "certificate_hash": "726d9c1f1130384b1d263e9770b64421c2b9bd7d"
          }
        },
        {
          "client_id": "822588801687-l8l7h1lbqabul9r98i5gi0s6ca08g55v.apps.googleusercontent.com",
          "client_type": 3
        }
      ],
      "api_key": [
        {
          "current_key": "AIzaSyCecBCZgOhP4tEjWRxQDKFigO8LdMN9DWg"
        }
      ],
      "services": {
        "appinvite_service": {
          "other_platform_oauth_client": [
            {
              "client_id": "822588801687-l8l7h1lbqabul9r98i5gi0s6ca08g55v.apps.googleusercontent.com",
              "client_type": 3
            }
          ]
        }
      }
    },
    {
      "client_info": {
        "mobilesdk_app_id": "1:822588801687:android:91a2f261d99af131a71fd2",
        "android_client_info": {
          "package_name": "com.lapak.pelapakkite"
        }
      },
      "oauth_client": [
        {
          "client_id": "822588801687-ovs7dh01d66f8fevant2fif7ndm7bv7i.apps.googleusercontent.com",
          "client_type": 1,
          "android_info": {
            "package_name": "com.lapak.pelapakkite",
            "certificate_hash": "b8605a9405a42a745be8623ef3056f5803022909"
          }
        },
        {
          "client_id": "822588801687-td1gd79jaq8rlqvtga781qtio0la9d49.apps.googleusercontent.com",
          "client_type": 1,
          "android_info": {
            "package_name": "com.lapak.pelapakkite",
            "certificate_hash": "d8ea2f2ca8ef68da0b75b398c05c36873f2f4af8"
          }
        },
        {
          "client_id": "822588801687-l8l7h1lbqabul9r98i5gi0s6ca08g55v.apps.googleusercontent.com",
          "client_type": 3
        }
      ],
      "api_key": [
        {
          "current_key": "AIzaSyCecBCZgOhP4tEjWRxQDKFigO8LdMN9DWg"
        }
      ],
      "services": {
        "appinvite_service": {
          "other_platform_oauth_client": [
            {
              "client_id": "822588801687-l8l7h1lbqabul9r98i5gi0s6ca08g55v.apps.googleusercontent.com",
              "client_type": 3
            }
          ]
        }
      }
    }
  ],
  "configuration_version": "1"
}